<svg style="width:86px;height:86px" viewBox="0 0 86 86" xmlns="http://www.w3.org/2000/svg">
  <path fill="#fff" d="M0 0h86v86H0z"/>
  <path d="M2 2h14v2H2zm16 0h10v2H18zm14 0h2v2h-2zm4 0h6v2h-6zm12 0h4v2h-4zm8 0h10v2H56zm14 0h14v2H70zM2 4h2v10H2zm12 0h2v10h-2zm6 0h2v2h-2zm14 0h6v2h-6zm10 0h2v2h-2zm4 0h2v2h-2zm4 0h4v2h-4zm6 0h2v2h-2zm4 0h4v2h-4zm8 0h2v10h-2zm12 0h2v10h-2zM6 6h6v6H6zm12 0h8v2h-8zm10 0h2v2h-2zm4 0h8v2h-8zm14 0h2v2h-2zm4 0h4v2h-4zm6 0h2v2h-2zm8 0h4v2h-4zm10 0h6v6h-6zM20 8h8v2h-8zm10 0h6v2h-6zm8 0h2v2h-2zm6 0h2v2h-2zm14 0h2v2h-2zm4 0h6v2h-6zm-44 2h6v2h-6zm8 0h2v2h-2zm6 0h6v2h-6zm8 0h8v2h-8zm12 0h2v2h-2zm4 0h2v2h-2zm8 0h4v2h-4zm-44 2h10v2H20zm12 0h2v2h-2zm6 0h6v2h-6zm8 0h4v2h-4zm6 0h4v2h-4zm8 0h2v2h-2zm6 0h2v4h-2zM2 14h14v2H2zm16 0h2v2h-2zm4 0h2v2h-2zm4 0h2v2h-2zm4 0h2v2h-2zm4 0h2v2h-2zm4 0h2v2h-2zm4 0h2v2h-2zm4 0h2v2h-2zm4 0h2v2h-2zm4 0h2v2h-2zm4 0h2v2h-2zm4 0h2v2h-2zm8 0h14v2H70zm-52 2h8v2h-8zm10 0h2v2h-2zm4 0h2v2h-2zm4 0h2v2h-2zm4 0h10v2H40zm16 0h2v2h-2zm8 0h4v4h-4zm-52 2h4v2h-4zm8 0h2v4h-2zm6 0h2v2h-2zm4 0h6v2h-6zm8 0h2v2h-2zm4 0h2v2h-2zm4 0h2v4h-2zm4 0h6v2h-6zm10 0h2v2h-2zm10 0h2v4h-2zm4 0h2v6h-2zm4 0h2v2h-2zm4 0h2v2h-2zM4 20h8v2H4zm12 0h2v2h-2zm12 0h2v2h-2zm4 0h10v2H32zm20 0h6v2h-6zm12 0h2v2h-2zm16 0h4v2h-4zM8 22h2v2H8zm6 0h2v2h-2zm8 0h2v2h-2zm4 0h4v2h-4zm10 0h2v2h-2zm12 0h12v2H48zm18 0h4v2h-4zm14 0h2v4h-2zM4 24h4v2H4zm6 0h4v2h-4zm6 0h2v2h-2zm6 0h6v2h-6zm8 0h2v2h-2zm4 0h2v2h-2zm8 0h2v2h-2zm4 0h10v2H46zm16 0h8v2h-8zm10 0h6v2h-6zM2 26h4v2H2zm6 0h2v2H8zm4 0h4v2h-4zm12 0h8v2h-8zm10 0h4v2h-4zm6 0h2v2h-2zm4 0h2v2h-2zm4 0h6v2h-6zm8 0h2v2h-2zm10 0h8v2h-8zm14 0h4v2h-4zM4 28h2v2H4zm6 0h2v2h-2zm6 0h2v2h-2zm8 0h12v2H24zm14 0h2v2h-2zm8 0h4v2h-4zm6 0h2v2h-2zm14 0h4v2h-4zm6 0h4v2h-4zm6 0h2v4h-2zM2 30h4v2H2zm6 0h10v2H8zm12 0h2v2h-2zm10 0h2v2h-2zm14 0h4v2h-4zm10 0h6v2h-6zm8 0h4v2h-4zm6 0h2v4h-2zm14 0h2v2h-2zM2 32h2v2H2zm8 0h2v2h-2zm12 0h2v2h-2zm6 0h2v4h-2zm4 0h2v2h-2zm6 0h4v2h-4zm8 0h6v2h-6zm12 0h2v2h-2zm6 0h2v2h-2zm8 0h2v4h-2zm4 0h8v2h-8zM2 34h8v2H2zm10 0h4v2h-4zm8 0h2v4h-2zm4 0h2v2h-2zm10 0h6v2h-6zm8 0h2v2h-2zm6 0h4v2h-4zm8 0h2v2h-2zm6 0h8v2h-8zm16 0h4v2h-4zM2 36h4v2H2zm10 0h2v2h-2zm12 0h4v2h-4zm10 0h2v2h-2zm4 0h6v2h-6zm8 0h4v2h-4zm8 0h2v4h-2zm4 0h4v2h-4zm10 0h10v2H68zm12 0h4v2h-4zM4 38h4v2H4zm6 0h2v2h-2zm4 0h10v2H14zm12 0h4v2h-4zm6 0h2v2h-2zm4 0h4v2h-4zm6 0h2v2h-2zm16 0h2v2h-2zm6 0h2v2h-2zm4 0h8v2h-8zm10 0h2v2h-2zm4 0h2v2h-2zM8 40h2v2H8zm4 0h2v2h-2zm4 0h6v2h-6zm12 0h4v2h-4zm6 0h8v2h-8zm10 0h8v2h-8zm12 0h8v2h-8zm12 0h4v2h-4zm6 0h8v4h-8zM2 42h6v2H2zm8 0h2v2h-2zm4 0h4v2h-4zm6 0h4v2h-4zm6 0h8v2h-8zm12 0h2v2h-2zm10 0h2v2h-2zm4 0h4v2h-4zm6 0h2v4h-2zM4 44h2v2H4zm4 0h4v2H8zm18 0h2v2h-2zm4 0h4v2h-4zm6 0h2v4h-2zm6 0h6v2h-6zm8 0h2v2h-2zm12 0h6v2h-6zm10 0h2v2h-2zm4 0h2v2h-2zM4 46h4v2H4zm6 0h2v2h-2zm4 0h2v2h-2zm6 0h10v2H20zm12 0h2v2h-2zm8 0h2v2h-2zm4 0h6v2h-6zm10 0h2v2h-2zm4 0h4v2h-4zm8 0h4v2h-4zm12 0h2v2h-2zM4 48h8v2H4zm12 0h2v2h-2zm6 0h2v2h-2zm4 0h10v2H26zm14 0h4v2h-4zm10 0h2v4h-2zm4 0h6v2h-6zm12 0h2v2h-2zm6 0h2v2h-2zm4 0h6v2h-6zM6 50h2v2H6zm6 0h6v2h-6zm12 0h2v2h-2zm4 0h2v2h-2zm4 0h2v2h-2zm6 0h8v2h-8zm16 0h2v2h-2zm4 0h2v2h-2zm8 0h6v2h-6zm8 0h8v2h-8zM6 52h6v2H6zm12 0h4v2h-4zm12 0h2v4h-2zm4 0h2v2h-2zm8 0h2v2h-2zm4 0h2v2h-2zm6 0h2v2h-2zm4 0h4v2h-4zm8 0h2v2h-2zm8 0h6v2h-6zM6 54h2v4H6zm6 0h6v2h-6zm8 0h2v2h-2zm18 0h8v2h-8zm12 0h2v2h-2zm4 0h4v2h-4zm8 0h2v2h-2zm4 0h2v2h-2zm4 0h4v2h-4zm12 0h2v2h-2zm-72 2h4v2h-4zm6 0h2v2h-2zm4 0h8v2h-8zm10 0h4v2h-4zm16 0h2v2h-2zm10 0h2v2h-2zm6 0h4v2h-4zm12 0h6v2h-6zM2 58h2v4H2zm12 0h2v2h-2zm8 0h4v2h-4zm10 0h2v2h-2zm4 0h10v2H36zm12 0h2v2h-2zm4 0h4v2h-4zm8 0h8v2h-8zm10 0h2v2h-2zm6 0h4v2h-4zm6 0h2v2h-2zM8 60h4v2H8zm8 0h4v2h-4zm12 0h8v2h-8zm10 0h6v2h-6zm12 0h2v2h-2zm8 0h6v2h-6zm16 0h10v2H74zM2 62h4v2H2zm6 0h2v2H8zm4 0h10v2H12zm12 0h2v2h-2zm10 0h2v2h-2zm4 0h14v2H38zm16 0h2v2h-2zm4 0h2v2h-2zm6 0h2v2h-2zm4 0h2v2h-2zm4 0h2v2h-2zM2 64h2v4H2zm10 0h2v2h-2zm4 0h2v2h-2zm6 0h10v2H22zm16 0h4v2h-4zm6 0h2v2h-2zm6 0h14v2H50zm20 0h4v2h-4zm6 0h2v2h-2zm-64 2h6v2h-6zm8 0h2v2h-2zm4 0h4v2h-4zm10 0h2v2h-2zm4 0h2v2h-2zm4 0h2v2h-2zm4 0h2v2h-2zm4 0h4v2h-4zm8 0h2v4h-2zm8 0h10v2H66zm12 0h4v2h-4zm-60 2h8v2h-8zm10 0h2v4h-2zm4 0h4v2h-4zm6 0h4v2h-4zm10 0h8v2h-8zm14 0h2v4h-2zm4 0h2v4h-2zm8 0h4v2h-4zM2 70h14v2H2zm20 0h2v4h-2zm12 0h4v2h-4zm6 0h2v2h-2zm4 0h10v2H44zm12 0h4v2h-4zm14 0h2v2h-2zm4 0h6v2h-6zM2 72h2v10H2zm12 0h2v10h-2zm4 0h2v2h-2zm8 0h4v4h-4zm10 0h6v2h-6zm8 0h2v2h-2zm10 0h2v2h-2zm10 0h4v2h-4zm10 0h4v2h-4zm6 0h2v2h-2zM6 74h6v6H6zm14 0h2v2h-2zm20 0h2v2h-2zm8 0h2v2h-2zm4 0h2v4h-2zm4 0h2v2h-2zm4 0h4v2h-4zm6 0h10v2H66zm12 0h2v2h-2zm-52 2h10v2H26zm12 0h2v2h-2zm4 0h4v4h-4zm16 0h2v2h-2zm8 0h2v2h-2zm6 0h2v2h-2zm8 0h2v4h-2zm-56 2h6v2h-6zm10 0h2v4h-2zm14 0h2v2h-2zm8 0h2v2h-2zm4 0h2v2h-2zm4 0h14v2H64zm-44 2h4v2h-4zm18 0h2v2h-2zm6 0h6v2h-6zm8 0h4v2h-4zm6 0h2v2h-2zm10 0h2v2h-2zm6 0h2v2h-2zm4 0h2v2h-2zm4 0h2v2h-2zM2 82h14v2H2zm18 0h2v2h-2zm6 0h2v2h-2zm4 0h4v2h-4zm8 0h4v2h-4zm16 0h4v2h-4zm6 0h6v2h-6zm10 0h8v2h-8z"/>
  <circle cx="43" cy="43" r="15" style="fill:#fff;fill-opacity:.75;stroke:#00f;stroke-width:1;stroke-opacity:.75"/>
  <path fill="#00f" d="M46.827 48.09a.548.548 0 0 1-.633.06c-.894-.74-1.055-1.08-1.547-1.79-1.476 1.5-2.521 1.95-4.44 1.95-2.26 0-4.028-1.39-4.028-4.17 0-2.18 1.176-3.64 2.873-4.38 1.467-.64 3.506-.76 5.063-.93v-.33c0-.66.05-1.41-.332-1.96-.321-.49-.954-.7-1.506-.7-1.025 0-1.94.53-2.16 1.61-.05.24-.251.48-.472.49l-2.612-.28c-.22-.05-.462-.22-.402-.56.603-3.15 3.466-4.1 6.027-4.1 1.306 0 3.014.35 4.048 1.33 1.306 1.22 1.196 2.85 1.196 4.62v4.17c0 1.25.502 1.81 1.004 2.48.17.25.211.54 0 .71l-2.07 1.78h-.01m-2.711-6.53V41c-1.949 0-4.008.39-4.008 2.67 0 1.16.613 1.95 1.637 1.95.764 0 1.437-.47 1.869-1.22.522-.93.502-1.8.502-2.84m6.96 8.98C48.907 52.14 45.713 53 42.98 53c-3.827 0-7.283-1.41-9.894-3.76-.201-.18-.02-.43.25-.29 2.793 1.63 6.279 2.61 9.875 2.61 2.42 0 5.092-.5 7.543-1.53.372-.16.663.24.322.51m.914-1.04c-.281-.36-1.858-.17-2.582-.08-.19.02-.22-.16-.03-.3 1.246-.88 3.305-.62 3.546-.33.241.3-.07 2.35-1.245 3.32-.181.16-.352.07-.262-.11.262-.67.854-2.14.573-2.5z"/>
</svg>
