<svg xmlns="http://www.w3.org/2000/svg" width="200.828" height="20">
    <path fill="#2976B7" d="M0 0h70.016v20H0z"/>
    <path fill="#174168" d="M70.016 0h130.813v20H70.016z"/>
    <g fill="#fff">
        <path d="M11.469 3.344c-.5-.078-.89-.078-1.438-.078H6.594v11.046h1.375V9.797h2.062c.547 0 .938 0 1.438-.063 1.594-.203 2.86-1.328 2.86-3.203 0-1.86-1.11-2.968-2.86-3.187m-.078 5.219c-.313.062-.75.093-1.235.093H7.97V4.422h2.187c.485 0 .922.016 1.235.078.78.188 1.468.75 1.468 2.031 0 1.282-.687 1.86-1.468 2.032M17.063 2.547h-1.375v9.375c0 .469 0 .844.015 1.125.047 1.078.64 1.328 1.438 1.328.312 0 .672-.016.968-.063v-.984c-.75.078-1-.11-1.03-.64-.017-.282-.017-.547-.017-.813V2.547M24.563 14.313h1.375a14.945 14.945 0 0 1-.157-2.157V8.97c0-.375-.015-.781-.047-1.125-.14-1.39-1-2.235-3.015-2.235-1.86 0-3.125 1.047-3.266 2.844h1.453c.094-1.172.672-1.781 1.813-1.781 1.14 0 1.593.5 1.656 1.281.031.328.031.656.031 1.031v.22h-.547c-3.328 0-4.765 1-4.765 2.921 0 1.563 1.203 2.406 2.734 2.406.813 0 1.547-.125 2.125-.515l.469-.922.14 1.219m-2.265-.829c-1.047 0-1.703-.453-1.703-1.468 0-1.47 1.468-1.954 3.812-1.782v.86c0 1.531-.828 2.39-2.11 2.39M29.844 6.953h1.593V5.891h-1.593V3.92h-1.375v1.97h-1.14v1.062h1.14v4.938c0 .484 0 .843.015 1.062.078 1.063.625 1.485 1.688 1.485.375 0 .765-.016 1.156-.079v-1c-1.062.125-1.406-.062-1.469-.875-.015-.218-.015-.359-.015-.656V6.953M34.703 4.203c.11-.687.797-.937 1.844-.734v-1.14a6.287 6.287 0 0 0-.984-.079c-1.266 0-2.094.688-2.235 1.922-.031.281-.047.703-.047 1.016v.703h-.906v1.062h.906v7.36h1.375v-7.36h1.75V5.891h-1.75v-.829c0-.234.016-.64.047-.859M41.36 5.61c-2.876 0-4.204 2.062-4.204 4.468 0 2.375 1.328 4.453 4.203 4.453s4.203-2.078 4.203-4.453c0-2.406-1.328-4.469-4.203-4.469m0 7.875c-1.718 0-2.703-1.421-2.703-3.406 0-2 .985-3.406 2.703-3.406 1.72 0 2.703 1.406 2.703 3.406 0 1.985-.984 3.406-2.703 3.406M50.563 5.64c-.407 0-.829.141-1.188.391l-.766 1.125V5.828h-1.375v8.485h1.375V9.483c0-1.937 1.078-2.78 2.532-2.687V5.75a1.364 1.364 0 0 0-.578-.11M63.797 7.672c-.203-1.172-1.063-2.063-2.578-2.063-.75 0-1.36.141-1.797.5l-.75 1.079c-.313-.922-1.156-1.579-2.453-1.579-.75 0-1.36.141-1.782.5l-.546.954V5.827h-1.375v8.485h1.375v-4.188c0-2.578.78-3.422 1.859-3.422.953 0 1.563.453 1.688 1.422.046.422.062.89.062 1.64v4.547h1.375v-4.187c0-2.578.797-3.422 1.86-3.422.968 0 1.562.453 1.703 1.422.046.422.062.89.062 1.64v4.547h1.375V9.125c0-.688-.016-1.016-.078-1.453"/>
    </g>
    <g fill="#fff">
        <path d="M91.484 3.266h-2.953l-1.594 8.843-1.39-8.671h-4.125l-1.469 8.64-1.469-8.812h-3.046l2.656 11.046h3.844l1.5-8.593 1.39 8.593h3.828l2.828-11.046M95.422 14.313V3.265h-2.875v11.046h2.875M108.14 14.313V3.265h-2.89V8c0 .625.016 1.766.11 2.89l-4.204-7.624h-3.578v11.046h2.875V9.75c0-.64 0-1.61-.094-2.734l4.016 7.296h3.766M115.234 17.516v-16h-1.859v16h1.86M129.36 11.875h-5.594v-8.61h-2.875v11.047h8.468v-2.437M133.813 14.313V3.265h-2.875v11.046h2.875M146.531 14.313V3.265h-2.89V8c0 .625.015 1.766.109 2.89l-4.203-7.624h-3.578v11.046h2.875V9.75c0-.64 0-1.61-.094-2.734l4.016 7.296h3.765M153.625 17.516v-16h-1.86v16h1.86M171.906 3.266h-4.39l-1.875 8.25-1.86-8.25h-4.5v11.046h2.875v-4.64c0-.953 0-2.39-.031-3.5.172 1.11.5 2.547.75 3.5l1.234 4.64h2.97l1.202-4.64c.266-.969.578-2.39.781-3.5-.03 1.11-.03 2.547-.03 3.5v4.64h2.874V3.267M180.25 11.453l.938 2.86h3.125l-3.985-11.047h-3.516l-3.984 11.046h3.063l.922-2.859h3.437m-1.703-5.64 1.016 3.39h-2.047l1.03-3.39M190.39 3.047c-2.984 0-5.452 1.984-5.452 5.828 0 3.734 2.39 5.656 5.343 5.656 2.766 0 4.813-1.36 5.078-4.015l.016-.157H192.5l-.031.157c-.25 1.218-.969 1.906-2.094 1.906-1.266 0-2.422-.938-2.422-3.719 0-2.39 1.031-3.547 2.406-3.547 1.172 0 1.891.563 2.141 1.75l.031.157h2.875l-.015-.157c-.22-2.172-1.844-3.86-5-3.86"/>
    </g>
</svg>
