<svg style="width:24px;height:24px" viewBox="0 0 24 24" xmlns="http://www.w3.org/2000/svg">
  <path fill="#000000" d="M17.906 12.91h3.282v2.78l-2.252 3.4h-1.941l.911-3.4zm-7.09 0h3.28v2.78l-2.25 3.4H9.903l.911-3.4zm-7.092 0h3.281v2.78l-2.251 3.4H2.812l.912-3.4z"/>
</svg>
