<svg style="width:24px;height:24px" viewBox="0 0 24 24" xmlns="http://www.w3.org/2000/svg">
  <path fill="#000000" d="M21.075 15.479c-.12.074-.463.12-.68.12-.71 0-1.58-.326-2.81-.852.476-.035.905-.052 1.294-.052.709 0 .915 0 1.613.178.692.171.698.532.583.606zm-12.304.109c.275-.48.555-.99.841-1.533a28.7 28.7 0 0 0 1.47-3.215c.658 1.195 1.476 2.208 2.431 3.02.12.103.246.2.383.303-1.95.39-3.638.858-5.125 1.425zm2.277-12.522c.389 0 .612.976.629 1.897.017.915-.194 1.556-.463 2.036-.223-.709-.326-1.819-.326-2.545 0 0-.018-1.388.16-1.388zm-7.63 17.572c.222-.6 1.092-1.79 2.379-2.848.08-.063.28-.252.463-.423-1.344 2.15-2.248 3.003-2.843 3.272zm18.029-6.423c-.389-.383-1.258-.584-2.574-.6-.892-.012-1.962.068-3.095.222-.503-.291-1.024-.606-1.435-.99-1.099-1.029-2.014-2.453-2.586-4.02.034-.15.069-.275.097-.407 0 0 .618-3.518.452-4.707a1.276 1.276 0 0 0-.08-.338l-.051-.143c-.166-.387-.498-.798-1.018-.776l-.304-.01h-.005c-.578 0-1.053.296-1.173.735-.378 1.39.011 3.46.715 6.143l-.183.44c-.503 1.225-1.133 2.46-1.687 3.547l-.075.143a59.541 59.541 0 0 1-1.596 2.94l-.497.263c-.035.023-.887.47-1.087.59-1.693 1.012-2.82 2.162-3.006 3.077-.06.286-.014.658.287.835l.48.24c.208.103.431.155.654.155 1.207 0 2.609-1.499 4.536-4.868 2.231-.727 4.771-1.333 6.996-1.665 1.693.956 3.775 1.62 5.091 1.62.235 0 .435-.024.6-.07a.988.988 0 0 0 .596-.406c.251-.383.308-.91.234-1.453-.017-.16-.149-.36-.286-.497z"/>
</svg>
