<svg style="width:24px;height:24px" viewBox="0 0 24 24" xmlns="http://www.w3.org/2000/svg">
  <path fill="#000000" d="m2.825 12 1.32-1.45C8.815 5.4 11.905 2 15.675 2c3.09 0 5.5 2.42 5.5 5.5 0 1.74-.81 3.41-2.08 4.5 1.27 1.09 2.08 2.76 2.08 4.5 0 3.08-2.41 5.5-5.5 5.5-3.77 0-6.86-3.4-11.53-8.55z"/>
</svg>
