<svg style="width:24px;height:24px" viewBox="0 0 24 24" xmlns="http://www.w3.org/2000/svg">
  <path fill="#000000" d="M12 16c.8 0 1.57-.07 2.31-.18l2.91-2.91C15.89 13.59 14 14 12 14c-2.42 0-4.7-.6-6-1.55V9.64c1.47.83 3.61 1.36 6 1.36s4.53-.53 6-1.36v2.49l1.39-1.39c.18-.18.39-.32.61-.44V7c0-2.21-3.58-4-8-4S4 4.79 4 7v10c0 2.04 3.06 3.72 7 3.97v-1.84l.17-.17C7.84 18.76 6 17.46 6 17v-2.23c1.61.78 3.72 1.23 6 1.23m0-11c3.87 0 6 1.5 6 2s-2.13 2-6 2-6-1.5-6-2 2.13-2 6-2m7.13 8.83 2.04 2.04L15.04 22H13v-2.04l6.13-6.13m3.72.36-.98.98-2.04-2.04.98-.98c.19-.2.52-.2.72 0l1.32 1.32c.2.2.2.53 0 .72z"/>
</svg>
