<svg style="width:24px;height:24px" viewBox="0 0 24 24" xmlns="http://www.w3.org/2000/svg">
  <path fill="#000000" d="M19 19H5V8h14m-3-7v2H8V1H6v2H5c-1.11 0-2 .89-2 2v14a2 2 0 0 0 2 2h14a2 2 0 0 0 2-2V5a2 2 0 0 0-2-2h-1V1"/>
  <path fill="#000000" d="M6.158 9.994h1.96v7.51h-1.1v-6.64h-.86v-.87zm6.68 1.05v1.94c0 .42-.153.667-.46.74.307.087.46.323.46.71v2.01c0 .707-.37 1.06-1.11 1.06h-1.31c-.747 0-1.12-.353-1.12-1.06v-2.01c0-.387.157-.623.47-.71-.313-.073-.47-.32-.47-.74v-1.94c0-.7.373-1.05 1.12-1.05h1.31c.74 0 1.11.35 1.11 1.05zm-1.06 5.24v-1.8c0-.14-.023-.233-.07-.28-.047-.047-.14-.07-.28-.07h-.71c-.147 0-.24.023-.28.07-.047.047-.07.14-.07.28v1.8c0 .14.023.233.07.28.04.053.133.08.28.08h.71c.14 0 .233-.027.28-.08.047-.047.07-.14.07-.28zm0-3.33v-1.75c0-.133-.023-.227-.07-.28-.047-.047-.14-.07-.28-.07h-.71c-.147 0-.24.023-.28.07-.047.053-.07.147-.07.28v1.75c0 .14.023.233.07.28.04.047.133.07.28.07h.71c.14 0 .233-.023.28-.07.047-.047.07-.14.07-.28zm4.648 3.33v-5.07c0-.14-.023-.233-.07-.28-.047-.047-.143-.07-.29-.07h-.64c-.147 0-.243.023-.29.07-.04.047-.06.14-.06.28v5.07c0 .14.02.233.06.28.047.04.143.06.29.06h.64c.147 0 .243-.02.29-.06.047-.047.07-.14.07-.28zm1.1-5.24v5.4c0 .707-.373 1.06-1.12 1.06h-1.31c-.753 0-1.13-.353-1.13-1.06v-5.4c0-.7.377-1.05 1.13-1.05h1.31c.747 0 1.12.35 1.12 1.05z"/>
</svg>
